4_bit_Counter/counter_tb.vcd
$date
	Fri Feb 14 02:02:53 2025
$end
$version
	Icarus Verilog
$end
$timescale
	1s
$end
$scope module counter_tb $end
$var wire 4 ! out [3:0] $end
$var reg 1 " clock $end
$var reg 1 # enable $end
$var reg 1 $ reset $end
$scope module U0 $end
$var wire 1 " clock $end
$var wire 1 # enable $end
$var wire 1 $ reset $end
$var reg 4 % out [3:0] $end
$scope begin COUNTER $end
$upscope $end
$upscope $end
$upscope $end
$enddefinitions $end
$comment Show the parameter values. $end
$dumpall
$end
#120
$dumpvars
b0 %
0$
1#
0"
b0 !
$end
#125
b1 !
b1 %
1"
#130
0"
#135
b10 !
b10 %
1"
#140
0"
#145
b11 !
b11 %
1"
#150
0"
#155
b100 !
b100 %
1"
#160
0"
#165
b101 !
b101 %
1"
#170
0"
#175
b110 !
b110 %
1"
#180
0"
#185
b111 !
b111 %
1"
#190
0"
#195
b1000 !
b1000 %
1"
#200
0"
#205
b1001 !
b1001 %
1"
#210
0"
#215
b1010 !
b1010 %
1"
#220
0"
#225
b1011 !
b1011 %
1"
#230
0"
#235
b1100 !
b1100 %
1"
#240
0"
#245
b1101 !
b1101 %
1"
#250
0"
#255
b1110 !
b1110 %
1"
#260
0"
#265
b1111 !
b1111 %
1"
#270
0"
#275
b0 !
b0 %
1"
#280
0"
#285
b1 !
b1 %
1"
#290
0"
#295
b10 !
b10 %
1"
#300
0"
#305
b11 !
b11 %
1"
#310
0"
#315
b100 !
b100 %
1"
#320
0"
#325
b101 !
b101 %
1"
#330
0"
#335
b110 !
b110 %
1"
#340
0"
#345
b111 !
b111 %
1"
#350
0"
#355
b1000 !
b1000 %
1"
#360
0"
#365
b1001 !
b1001 %
1"
#370
0"
#375
b1010 !
b1010 %
1"
#380
0"
#385
b1011 !
b1011 %
1"
#390
0"
#395
b1100 !
b1100 %
1"
#400
0"
#405
b1101 !
b1101 %
1"
#410
0"
#415
b1110 !
b1110 %
1"
#420
0"
#425
b1111 !
b1111 %
1"
#430
0"
#435
b0 !
b0 %
1"
#440
0"
#445
b1 !
b1 %
1"
#450
0"
#455
b10 !
b10 %
1"
#460
0"
#465
b11 !
b11 %
1"
#470
0"
#475
b100 !
b100 %
1"
#480
0"
#485
b101 !
b101 %
1"
#490
0"
#495
b110 !
b110 %
1"
#500
0"
#505
b111 !
b111 %
1"
#510
0"
#515
b1000 !
b1000 %
1"
#520
0"
#525
b1001 !
b1001 %
1"
#530
0"
#535
b1010 !
b1010 %
1"
#540
0"
#545
b1011 !
b1011 %
1"
#550
0"
#555
b1100 !
b1100 %
1"
#560
0"
#565
b1101 !
b1101 %
1"
#570
0"
#575
b1110 !
b1110 %
1"
#580
0"
#585
b1111 !
b1111 %
1"
#590
0"
#595
b0 !
b0 %
1"
#600
0"
#605
b1 !
b1 %
1"
#610
0"
#615
b10 !
b10 %
1"
#620
0"
0#
#625
1"
#630
0"
#635
1"
#640
0"
#645
1"
#650
0"
#655
1"
#660
0"
#665
1"
#670
0"
#675
1"
#680
0"
#685
1"
#690
0"
#695
1"
#700
0"
#705
1"
#710
0"
#715
1"
#720
b0 !
b0 %
0"
1$
#725
1"
#730
0"
0$
